<?xml version="1.0" encoding="utf-8"?>
<!-- Generator: Adobe Illustrator 22.1.0, SVG Export Plug-In . SVG Version: 6.00 Build 0)  -->
<svg version="1.1" id="Layer_1" xmlns="http://www.w3.org/2000/svg" xmlns:xlink="http://www.w3.org/1999/xlink" x="0px" y="0px"
	 viewBox="0 0 85.2 74" style="enable-background:new 0 0 85.2 74;" xml:space="preserve">
<style type="text/css">
	.st0{fill:none;stroke:#000000;stroke-width:2.831;stroke-linecap:round;stroke-linejoin:round;stroke-miterlimit:10;}
	.st1{fill:#FFFFFF;stroke:#000000;stroke-width:2.831;stroke-miterlimit:10;}
</style>
<g>
	<path d="M85.2,23.7c-0.2-0.9-1.1-1.5-2-1.2l-28,9.8c-0.8,0.3-1.6,0.1-2.2-0.4c-2.6-2.1-5.8-3.6-9.3-4.2c-1.1-0.2-1.8-1.1-1.8-2.2
		c0-4.7,0-16.6,0-20.9c0-0.9,0.7-1.6,1.7-1.6h40.3c0.8,0,1.5-0.7,1.5-1.5S84.6,0,83.7,0H1.5C0.7,0,0,0.7,0,1.5S0.7,3,1.5,3h35.6
		c0.9,0,1.7,0.7,1.7,1.7l0,16.7c0,0.8-0.8,1.2-1.5,0.8c-2.7-1.6-6-1-7.8-0.3L1,33.8c-0.7,0.3-1.1,1-1,1.8c0.2,0.9,1.2,1.4,2,1
		l28.3-11.9c1.8-0.8,3.8-0.8,5.6,0.1c0.5,0.3,1,0.6,1.4,1c0.7,0.6,0.3,1.7-0.6,1.9c-7.7,1.3-14,7.1-16,14.6c-0.3,1-1,1.8-2,2.3
		L1,52.2c-0.7,0.3-1.1,1-1,1.8c0.2,0.9,1.2,1.4,2,1l17.2-7.2c0.5-0.2,1.1,0.1,1.1,0.7c0.2,3.1,1.6,7.7,3.5,10.7
		c0.5,0.7,0.1,1.7-0.7,2L1,70.5c-0.7,0.3-1.1,1-1,1.8c0.2,0.9,1.2,1.4,2,1l23.2-9.7c1.1-0.5,2.4-0.3,3.4,0.4c2.8,2,6.1,3.3,9.8,3.6
		c0.8,0.1,1.4,0.6,1.7,1.2c0.8,1.6,2,2.9,3.5,3.8c1.5,0.9,3.1,1.3,4.8,1.3c1,0,2.1-0.2,3.1-0.5l32.6-11.4c0.7-0.2,1.2-1,1.1-1.7
		c-0.2-0.9-1.1-1.5-2-1.2L50.7,70.6c-1.4,0.5-2.8,0.6-4.2,0.1c-1.3-0.4-2.3-1.2-3.1-2.2c-0.3-0.4-0.1-1,0.5-1.1
		c7.4-1.3,13.4-6.7,15.6-13.8c0.3-0.8,0.9-1.5,1.7-1.8l22.9-8c0.7-0.2,1.2-1,1.1-1.7c-0.2-0.9-1.1-1.5-2-1.2l-21.5,7.6
		c-0.6,0.2-1.3-0.2-1.4-0.9c-0.1-2.4-0.7-7.4-3.2-11c-0.5-0.7-0.1-1.6,0.6-1.9c5.4-1.9,22.6-7.9,26.4-9.2
		C84.9,25.1,85.3,24.4,85.2,23.7z M50.5,33.5c0.2,0.1,0.1,0.5-0.1,0.5c-0.8,0.2-2.1,0.4-2.8,0.3c-1.8-0.3-3.2-1.2-4.2-2.5
		c-0.3-0.4,0.1-1,0.6-0.9C46.2,31.4,48.6,32.2,50.5,33.5z M31,62c-0.3-0.2-0.2-0.6,0.2-0.6c1.3-0.2,3.8-0.4,5,0.3
		c0.8,0.4,1.5,1,2,1.7c0.4,0.5-0.1,1.2-0.7,1.1C35.1,64.1,32.9,63.2,31,62z M42,64.6c-0.7-2.6-2.6-4.8-5.1-6c-2.4-1.1-5.2-1-7.7,0
		l-0.1,0c-0.9,0.4-1.9,0.1-2.4-0.6c-2.3-2.9-3.6-6.5-3.6-10.5l0,0c0-0.9,0.5-1.7,1.3-2l5.9-2.5c1.7-0.7,3.7-0.8,5.3,0
		c1.9,0.9,3.2,2.6,3.5,4.7c0.2,1.2,0.5,2.4,1.1,3.4c1.9,3,4.9,4.5,8,4.5c1,0,2.1-0.2,3.1-0.5l3-1.1c0.7-0.3,1.4,0.5,1.1,1.2
		C53,60.4,48,64,42,64.6z M57.4,47.6c0,0.4,0,0.8-0.1,1.3c-0.1,0.7-0.5,1.3-1.2,1.5l-5.5,1.9c-1.3,0.5-2.8,0.6-4.2,0.1
		c-2.3-0.8-3.8-2.6-4.2-4.9c-0.5-2.7-1.9-5.1-4.2-6.6c-2.6-1.6-5.7-1.9-8.5-0.7L25.1,42c-0.5,0.2-1-0.3-0.8-0.8
		c2.4-6.1,8.3-10.5,15.1-10.8c0.6,2.3,2.1,4.3,4.2,5.5c1.5,0.9,3.1,1.3,4.8,1.3c1,0,2.1-0.2,3.1-0.5l1.6-0.6
		C55.8,39.3,57.4,43.2,57.4,47.6z"/>
</g>
</svg>
