<?xml version="1.0" encoding="UTF-8"?>
<svg width="24px" height="19px" viewBox="0 0 24 19" version="1.1" xmlns="http://www.w3.org/2000/svg" xmlns:xlink="http://www.w3.org/1999/xlink">
    <defs></defs>
    <g id="Symbols" stroke="none" stroke-width="1" fill="none" fill-rule="evenodd">
        <g id="Navigation/Mobile-Tap-Bar---Passive" transform="translate(-325.000000, -20.000000)" fill="#000000">
            <g id="SANDWICH" transform="translate(325.000000, 20.000000)">
                <rect id="Rectangle" x="0" y="0" width="24" height="1.66999996"></rect>
                <rect id="Rectangle-Copy" x="0" y="9" width="24" height="2"></rect>
                <rect id="Rectangle-Copy" x="0" y="17" width="24" height="2"></rect>
            </g>
        </g>
    </g>
</svg>