<?xml version="1.0" encoding="utf-8"?>
<!-- Generator: Adobe Illustrator 22.1.0, SVG Export Plug-In . SVG Version: 6.00 Build 0)  -->
<svg version="1.1"  xmlns="http://www.w3.org/2000/svg" xmlns:xlink="http://www.w3.org/1999/xlink" x="0px" y="0px"
	 viewBox="0 0 39 45" style="enable-background:new 0 0 39 45;" xml:space="preserve">
<style type="text/css">
	.st0{enable-background:new    ;}
	.st1{stroke:#000000;stroke-width:0.5;stroke-miterlimit:10;}
	.st2{fill:none;stroke:#000000;stroke-width:2;}
</style>
<g id="Design">
	<g id="BLOG-LANDING---Vaporizers" transform="translate(-166.000000, -2489.000000)">
		<g id="_x33_COL-NORMAL-Vape" transform="translate(135.000000, 2178.000000)">
			<g id="MEDIUM">
				<g id="Group-3" transform="translate(30.000000, 229.000000)">
					<g id="ARROW" transform="translate(0.000000, 81.000000)">
						<g class="st0">
							<path class="st1" d="M27.8,23.5l-6.9,6.9l-1-1l5.2-5.1h-13v-1.6h13l-5.2-5l1-1L27.8,23.5z"/>
						</g>
						<polygon id="Polygon" class="st2" points="20.5,3 38.3,13.2 38.3,33.8 20.5,44 2.7,33.8 2.7,13.2 						"/>
					</g>
				</g>
			</g>
		</g>
	</g>
</g>
</svg>
